<?xml version="1.0" encoding="UTF-8" standalone="no"?>
<!-- Created with Inkscape (http://www.inkscape.org/) -->

<svg
   xmlns:osb="http://www.openswatchbook.org/uri/2009/osb"
   xmlns:dc="http://purl.org/dc/elements/1.1/"
   xmlns:cc="http://creativecommons.org/ns#"
   xmlns:rdf="http://www.w3.org/1999/02/22-rdf-syntax-ns#"
   xmlns:svg="http://www.w3.org/2000/svg"
   xmlns="http://www.w3.org/2000/svg"
   xmlns:sodipodi="http://sodipodi.sourceforge.net/DTD/sodipodi-0.dtd"
   xmlns:inkscape="http://www.inkscape.org/namespaces/inkscape"
   width="210mm"
   height="297mm"
   viewBox="0 0 744.09448819 1052.3622047"
   id="svg2"
   version="1.1"
   inkscape:version="0.91 r13725"
   inkscape:export-filename="C:\cygwin\home\axel22\workspaces\scala\parprog\statements\kmeans\clusters.png"
   inkscape:export-xdpi="44.18"
   inkscape:export-ydpi="44.18"
   sodipodi:docname="step0.svg">
  <defs
     id="defs4">
    <linearGradient
       id="linearGradient7502"
       osb:paint="solid">
      <stop
         style="stop-color:#000000;stop-opacity:1;"
         offset="0"
         id="stop7504" />
    </linearGradient>
    <marker
       inkscape:isstock="true"
       style="overflow:visible;"
       id="marker4494"
       refX="0.0"
       refY="0.0"
       orient="auto"
       inkscape:stockid="Arrow1Lend">
      <path
         transform="scale(0.8) rotate(180) translate(12.5,0)"
         style="fill-rule:evenodd;stroke:#000000;stroke-width:1pt;stroke-opacity:1;fill:#000000;fill-opacity:1"
         d="M 0.0,0.0 L 5.0,-5.0 L -12.5,0.0 L 5.0,5.0 L 0.0,0.0 z "
         id="path4496" />
    </marker>
    <marker
       inkscape:stockid="Arrow1Lend"
       orient="auto"
       refY="0.0"
       refX="0.0"
       id="Arrow1Lend"
       style="overflow:visible;"
       inkscape:isstock="true"
       inkscape:collect="always">
      <path
         id="path4147"
         d="M 0.0,0.0 L 5.0,-5.0 L -12.5,0.0 L 5.0,5.0 L 0.0,0.0 z "
         style="fill-rule:evenodd;stroke:#000000;stroke-width:1pt;stroke-opacity:1;fill:#000000;fill-opacity:1"
         transform="scale(0.8) rotate(180) translate(12.5,0)" />
    </marker>
  </defs>
  <sodipodi:namedview
     id="base"
     pagecolor="#ffffff"
     bordercolor="#666666"
     borderopacity="1.0"
     inkscape:pageopacity="0.0"
     inkscape:pageshadow="2"
     inkscape:zoom="0.98994949"
     inkscape:cx="407.41238"
     inkscape:cy="632.82609"
     inkscape:document-units="px"
     inkscape:current-layer="layer1"
     showgrid="false"
     inkscape:window-width="1600"
     inkscape:window-height="877"
     inkscape:window-x="-4"
     inkscape:window-y="-4"
     inkscape:window-maximized="1" />
  <metadata
     id="metadata7">
    <rdf:RDF>
      <cc:Work
         rdf:about="">
        <dc:format>image/svg+xml</dc:format>
        <dc:type
           rdf:resource="http://purl.org/dc/dcmitype/StillImage" />
        <dc:title></dc:title>
      </cc:Work>
    </rdf:RDF>
  </metadata>
  <g
     inkscape:label="Layer 1"
     inkscape:groupmode="layer"
     id="layer1">
    <path
       style="fill:none;fill-rule:evenodd;stroke:#000000;stroke-width:3.07530761;stroke-linecap:butt;stroke-linejoin:miter;stroke-miterlimit:4;stroke-dasharray:none;stroke-opacity:1;marker-end:url(#Arrow1Lend)"
       d="m 41.428567,463.79078 646.353683,0"
       id="path4138"
       inkscape:connector-curvature="0" />
    <path
       inkscape:connector-curvature="0"
       id="path4492"
       d="m 338.83255,778.33762 0,-646.35368"
       style="fill:none;fill-rule:evenodd;stroke:#000000;stroke-width:3.07530761;stroke-linecap:butt;stroke-linejoin:miter;stroke-miterlimit:4;stroke-dasharray:none;stroke-opacity:1;marker-end:url(#marker4494)" />
    <circle
       style="fill:none;fill-opacity:0.29677418;stroke-width:2.5;stroke-miterlimit:4;stroke-dasharray:none;stroke-dashoffset:0;stroke:#000000;stroke-opacity:1"
       id="path5826"
       cx="475.71429"
       cy="179.50507"
       r="10" />
    <circle
       r="10"
       cy="245.21935"
       cx="505.71429"
       id="circle5828"
       style="fill:none;fill-opacity:0.29677418;stroke:#000000;stroke-width:2.5;stroke-miterlimit:4;stroke-dasharray:none;stroke-dashoffset:0;stroke-opacity:1" />
    <circle
       style="fill:none;fill-opacity:0.29677418;stroke:#000000;stroke-width:2.5;stroke-miterlimit:4;stroke-dasharray:none;stroke-dashoffset:0;stroke-opacity:1"
       id="circle5830"
       cx="548.57141"
       cy="189.50507"
       r="10" />
    <circle
       r="10"
       cy="240.93364"
       cx="581.42853"
       id="circle5832"
       style="fill:none;fill-opacity:0.29677418;stroke:#000000;stroke-width:2.5;stroke-miterlimit:4;stroke-dasharray:none;stroke-dashoffset:0;stroke-opacity:1" />
    <circle
       style="fill:none;fill-opacity:0.29677418;stroke:#000000;stroke-width:2.5;stroke-miterlimit:4;stroke-dasharray:none;stroke-dashoffset:0;stroke-opacity:1"
       id="circle5834"
       cx="585.71423"
       cy="110.93364"
       r="10" />
    <circle
       r="10"
       cy="316.64792"
       cx="98.571434"
       id="circle5838"
       style="fill:none;fill-opacity:1;stroke:#000000;stroke-width:2.5;stroke-miterlimit:4;stroke-dasharray:none;stroke-dashoffset:0;stroke-opacity:1" />
    <circle
       style="fill:none;fill-opacity:1;stroke:#000000;stroke-width:2.5;stroke-miterlimit:4;stroke-dasharray:none;stroke-dashoffset:0;stroke-opacity:1"
       id="circle5840"
       cx="302.31769"
       cy="302.56015"
       r="10" />
    <circle
       r="10"
       cy="340.79007"
       cx="239.10878"
       id="circle5842"
       style="fill:none;fill-opacity:1;stroke:#000000;stroke-width:2.5;stroke-miterlimit:4;stroke-dasharray:none;stroke-dashoffset:0;stroke-opacity:1" />
    <circle
       style="fill:none;fill-opacity:1;stroke:#000000;stroke-width:2.5;stroke-miterlimit:4;stroke-dasharray:none;stroke-dashoffset:0;stroke-opacity:1"
       id="circle5844"
       cx="188.12323"
       cy="373.02576"
       r="10" />
    <circle
       r="10"
       cy="262.21863"
       cx="227.76428"
       id="circle5846"
       style="fill:none;fill-opacity:1;stroke:#000000;stroke-width:2.5;stroke-miterlimit:4;stroke-dasharray:none;stroke-dashoffset:0;stroke-opacity:1" />
    <circle
       style="fill:#000000;fill-opacity:0;stroke:#000000;stroke-width:2.5;stroke-miterlimit:4;stroke-dasharray:none;stroke-dashoffset:0;stroke-opacity:1"
       id="circle7532"
       cx="70.008804"
       cy="691.26898"
       r="10"
       transform="matrix(0.77979134,-0.62603951,0.62603951,0.77979134,0,0)" />
    <circle
       r="10"
       cy="737.31219"
       cx="36.781143"
       id="circle7534"
       style="fill:#000000;fill-opacity:0;stroke:#000000;stroke-width:2.5;stroke-miterlimit:4;stroke-dasharray:none;stroke-dashoffset:0;stroke-opacity:1"
       transform="matrix(0.77979134,-0.62603951,0.62603951,0.77979134,0,0)" />
    <circle
       style="fill:#000000;fill-opacity:0;stroke:#000000;stroke-width:2.5;stroke-miterlimit:4;stroke-dasharray:none;stroke-dashoffset:0;stroke-opacity:1"
       id="circle7536"
       cx="181.05341"
       cy="695.65546"
       r="10"
       transform="matrix(0.77979134,-0.62603951,0.62603951,0.77979134,0,0)" />
    <circle
       r="10"
       cy="766.3324"
       cx="123.32337"
       id="circle7538"
       style="fill:#000000;fill-opacity:0;stroke:#000000;stroke-width:2.5;stroke-miterlimit:4;stroke-dasharray:none;stroke-dashoffset:0;stroke-opacity:1"
       transform="matrix(0.77979134,-0.62603951,0.62603951,0.77979134,0,0)" />
    <circle
       style="fill:#000000;fill-opacity:0;stroke:#000000;stroke-width:2.5;stroke-miterlimit:4;stroke-dasharray:none;stroke-dashoffset:0;stroke-opacity:1"
       id="circle7540"
       cx="137.71626"
       cy="630.1972"
       r="10"
       transform="matrix(0.77979134,-0.62603951,0.62603951,0.77979134,0,0)" />
    <text
       xml:space="preserve"
       style="font-style:normal;font-weight:bold;font-size:35.58875067px;line-height:125%;font-family:sans-serif;letter-spacing:0px;word-spacing:0px;fill:#000000;fill-opacity:1;stroke:none;stroke-width:1px;stroke-linecap:butt;stroke-linejoin:miter;stroke-opacity:1;-inkscape-font-specification:'sans-serif, Bold';font-stretch:normal;font-variant:normal;text-anchor:start;text-align:start;writing-mode:lr;"
       x="196.82574"
       y="608.31287"
       id="text7568"
       sodipodi:linespacing="125%"
       transform="scale(1.1239557,0.88971479)"><tspan
         sodipodi:role="line"
         id="tspan7570"
         x="196.82574"
         y="608.31287">X</tspan></text>
    <text
       transform="scale(1.1239557,0.8897148)"
       sodipodi:linespacing="125%"
       id="text7572"
       y="424.38351"
       x="521.27362"
       style="font-style:normal;font-weight:bold;font-size:35.58875047px;line-height:125%;font-family:sans-serif;letter-spacing:0px;word-spacing:0px;fill:#000000;fill-opacity:1;stroke:none;stroke-width:1px;stroke-linecap:butt;stroke-linejoin:miter;stroke-opacity:1;-inkscape-font-specification:'sans-serif, Bold';font-stretch:normal;font-variant:normal;text-anchor:start;text-align:start;writing-mode:lr;"
       xml:space="preserve"><tspan
         y="424.38351"
         x="521.27362"
         id="tspan7574"
         sodipodi:role="line">X</tspan></text>
    <text
       xml:space="preserve"
       style="font-style:normal;font-weight:bold;font-size:35.58875084px;line-height:125%;font-family:sans-serif;letter-spacing:0px;word-spacing:0px;fill:#000000;fill-opacity:1;stroke:none;stroke-width:1px;stroke-linecap:butt;stroke-linejoin:miter;stroke-opacity:1;-inkscape-font-specification:'sans-serif, Bold';font-stretch:normal;font-variant:normal;text-anchor:start;text-align:start;writing-mode:lr;"
       x="321.75165"
       y="257.48459"
       id="text7576"
       sodipodi:linespacing="125%"
       transform="scale(1.1239557,0.88971479)"><tspan
         sodipodi:role="line"
         id="tspan7578"
         x="321.75165"
         y="257.48459">X</tspan></text>
  </g>
</svg>
